somador2/simulation/qsim/somador2.msim.vcd
$comment
	File created using the following command:
		vcd file somador2.msim.vcd -direction
$end
$date
	Wed Jun 14 15:48:17 2023
$end
$version
	ModelSim Version 10.1d
$end
$timescale
	1ps
$end
$scope module somador2_vlg_vec_tst $end
$var reg 3 ! A [0:2] $end
$var reg 3 " B [0:2] $end
$var reg 1 # Te $end
$var wire 1 $ S [0] $end
$var wire 1 % S [1] $end
$var wire 1 & S [2] $end
$var wire 1 ' TsFim $end
$var wire 1 ( sampler $end
$scope module i1 $end
$var wire 1 ) gnd $end
$var wire 1 * vcc $end
$var wire 1 + unknown $end
$var tri1 1 , devclrn $end
$var tri1 1 - devpor $end
$var tri1 1 . devoe $end
$var wire 1 / Ts[1]~0_combout $end
$var wire 1 0 Ts[1]~1_combout $end
$var wire 1 1 Ts[2]~2_combout $end
$var wire 1 2 S~0_combout $end
$var wire 1 3 S~1_combout $end
$var wire 1 4 Te~combout $end
$var wire 1 5 S~2_combout $end
$var wire 1 6 Ts~3_combout $end
$var wire 1 7 A~combout [0] $end
$var wire 1 8 A~combout [1] $end
$var wire 1 9 A~combout [2] $end
$var wire 1 : B~combout [0] $end
$var wire 1 ; B~combout [1] $end
$var wire 1 < B~combout [2] $end
$upscope $end
$upscope $end
$enddefinitions $end
#0
$dumpvars
b111 !
b111 "
0#
1&
1%
0$
1'
x(
0)
1*
x+
1,
1-
1.
1/
00
11
12
13
04
05
16
19
18
17
1<
1;
1:
$end
#10000
b101 !
08
0(
03
0%
#20000
b100 !
b101 "
b1 "
b110 !
0;
0:
09
18
1(
15
0/
02
13
01
1$
0&
06
12
1%
0'
1&
#30000
b10 !
b0 "
b11 !
b1 !
0<
19
08
07
0(
03
05
0%
0$
#40000
b10 "
b101 !
b11 "
b111 !
18
17
1<
1;
1(
11
15
16
02
12
1$
1'
0&
1&
#50000
b110 !
b1 "
b100 !
0;
09
08
0(
01
02
06
12
0&
0'
1&
#60000
b11 "
b110 !
18
1;
1(
11
16
02
1'
0&
#70000
b10 !
b10 "
0<
07
0(
06
12
05
0'
1&
0$
#80000
b11 !
b1 !
b11 "
1<
19
08
1(
16
13
01
02
1'
1%
0&
#90000
b1 "
b101 !
b111 !
b0 "
18
17
0<
0;
0(
15
06
12
1$
0'
1&
